[
	{
		"id": 5,
		"name": "Layer 2",
		"layerFrame": {
			"x": 0,
			"y": 0,
			"width": 333,
			"height": 379
		},
		"maskFrame": null,
		"image": {
			"path": "images/Layer 2.png",
			"frame": {
				"x": 0,
				"y": 0,
				"width": 333,
				"height": 379
			}
		},
		"imageType": "png",
		"children": [
			
		],
		"modification": "749254271"
	},
	{
		"id": 10,
		"name": "Layer 1",
		"layerFrame": {
			"x": 0,
			"y": 0,
			"width": 333,
			"height": 379
		},
		"maskFrame": null,
		"image": {
			"path": "images/Layer 1.png",
			"frame": {
				"x": 59,
				"y": 83,
				"width": 214,
				"height": 172
			}
		},
		"imageType": "png",
		"children": [
			
		],
		"modification": "1227622087"
	}
]