Could not read previous export (for caching), doing full export.
Layer 2: Exporting image
Layer 1: Exporting image
2 views changed
Success: /Users/ronakvora/Documents/Fall2014/CS160/Programming/Prog 03/Prog03.framer/imported/Prog03-01
