[
	{
		"id": 14,
		"name": "Layer 3",
		"layerFrame": {
			"x": 0,
			"y": 0,
			"width": 333,
			"height": 379
		},
		"maskFrame": null,
		"image": {
			"path": "images/Layer 3.png",
			"frame": {
				"x": 0,
				"y": 0,
				"width": 333,
				"height": 379
			}
		},
		"imageType": "png",
		"children": [
			
		],
		"modification": "186761640"
	},
	{
		"id": 5,
		"name": "Layer 2",
		"layerFrame": {
			"x": 0,
			"y": 0,
			"width": 333,
			"height": 379
		},
		"maskFrame": null,
		"image": {
			"path": "images/Layer 2.png",
			"frame": {
				"x": 21,
				"y": 153,
				"width": 292,
				"height": 53
			}
		},
		"imageType": "png",
		"children": [
			
		],
		"modification": "186612502"
	},
	{
		"id": 12,
		"name": "Layer 1",
		"layerFrame": {
			"x": 0,
			"y": 0,
			"width": 333,
			"height": 379
		},
		"maskFrame": null,
		"image": {
			"path": "images/Layer 1.png",
			"frame": {
				"x": 0,
				"y": 0,
				"width": 333,
				"height": 379
			}
		},
		"imageType": "png",
		"children": [
			
		],
		"modification": "1257735647"
	}
]