Could not read previous export (for caching), doing full export.
Layer 3: Exporting image
Layer 2: Exporting image
Layer 1: Exporting image
3 views changed
Success: /Users/ronakvora/Documents/Fall2014/CS160/Programming/Prog 03/Prog03Watch.framer/imported/Prog03(1)-08
